"word";"class"
"70";"einseitig";"1"
"242";"low";"1"
"67";"eingefroren";"10"
"118";"gefroren";"10"
"26";"außergewöhnlich";"11"
"201";"intensiv";"11"
"308";"salzig";"11"
"63";"dünn";"12"
"220";"kräftig";"19"
"163";"glänzend";"2"
"164";"glatt";"2"
"188";"herkömmlich";"20"
"287";"raffiniert";"20"
"126";"gelb";"21"
"180";"hart";"21"
"280";"pflanzlich";"22"
"383";"vegan";"22"
"54";"dezent";"29"
"252";"mild";"29"
"104";"flüssig";"3"
"297";"restlich";"3"
"206";"kalt";"30"
"405";"warm";"30"
"38";"besonderer";"31"
"363";"typisch";"31"
"190";"herzhaft";"38"
"200";"indisch";"38"
"124";"gekocht";"39"
"301";"roh";"39"
"56";"dick";"4"
"167";"gleichmäßig";"4"
"193";"hoch";"40"
"263";"niedrig";"40"
"183";"heimisch";"41"
"416";"zahlreich";"41"
"75";"empfindlich";"45"
"194";"hochwertig";"45"
"306";"saftig";"46"
"361";"trocken";"46"
"407";"weich";"46"
"64";"echt";"47"
"404";"wahr";"47"
"91";"fest";"53"
"303";"rot";"53"
"315";"scharf";"54"
"414";"würzig";"54"
"33";"beliebt";"55"
"219";"köstlich";"55"
"390";"verschieden";"56"
"410";"wichtig";"56"
"324";"schön";"61"
"359";"toll";"61"
"234";"lecker";"62"
"417";"zart";"62"
"105";"frisch";"63"
"174";"grün";"63"
"185";"hell";"68"
"380";"unterschiedlich";"68"
"177";"gut";"69"
"338";"sortiert";"69"
"45";"bunt";"70"
"349";"süß";"70"
"88";"fein";"73"
"122";"gehackt";"73"
"173";"groß";"74"
"210";"klein";"74"
"236";"leer";"74"
"1";"abgekühlt";"selfclass"
"2";"abgewogen";"selfclass"
"3";"akut";"selfclass"
"4";"alt";"selfclass"
"5";"alternativ";"selfclass"
"6";"angebrochen";"selfclass"
"7";"angegeben";"selfclass"
"8";"angenehm";"selfclass"
"9";"angerichtet";"selfclass"
"10";"ansprechend";"selfclass"
"11";"antibakteriell";"selfclass"
"12";"antihaftbeschichtet";"selfclass"
"13";"appetitlich";"selfclass"
"14";"aromatisch";"selfclass"
"15";"aromatisiert";"selfclass"
"16";"asiatisch";"selfclass"
"17";"aufgetaut";"selfclass"
"18";"aufwendig";"selfclass"
"19";"ausgefallen";"selfclass"
"20";"ausgeglichen";"selfclass"
"21";"ausgeprägt";"selfclass"
"22";"ausgespült";"selfclass"
"23";"ausgewogen";"selfclass"
"24";"ausreichend";"selfclass"
"25";"äußerer";"selfclass"
"27";"ballaststoffreich";"selfclass"
"28";"basisch";"selfclass"
"29";"bayerisch";"selfclass"
"30";"begehrt";"selfclass"
"31";"beigefarben";"selfclass"
"32";"bekannt";"selfclass"
"34";"bemehlt";"selfclass"
"35";"berühmt";"selfclass"
"36";"beschädigt";"selfclass"
"37";"beschichtet";"selfclass"
"39";"biologisch";"selfclass"
"40";"bitter";"selfclass"
"41";"blanchiert";"selfclass"
"42";"blau";"selfclass"
"43";"bodenständig";"selfclass"
"44";"braun";"selfclass"
"46";"buttrig";"selfclass"
"47";"charakteristisch";"selfclass"
"48";"chinesisch";"selfclass"
"49";"clever";"selfclass"
"50";"cool";"selfclass"
"51";"cremig";"selfclass"
"52";"deftig";"selfclass"
"53";"delikat";"selfclass"
"55";"dicht";"selfclass"
"57";"dickflüssig";"selfclass"
"58";"dritter";"selfclass"
"59";"duftend";"selfclass"
"60";"dunkel";"selfclass"
"61";"dunkelgrün";"selfclass"
"62";"dunkelrot";"selfclass"
"65";"edel";"selfclass"
"66";"einfach";"selfclass"
"68";"eingelegt";"selfclass"
"69";"eingesetzt";"selfclass"
"71";"einwandfrei";"selfclass"
"72";"einzigartig";"selfclass"
"73";"eiweißreich";"selfclass"
"74";"elektrisch";"selfclass"
"76";"enthalten";"selfclass"
"77";"entwickelt";"selfclass"
"78";"erfrischend";"selfclass"
"79";"erhöht";"selfclass"
"80";"erlaubt";"selfclass"
"81";"erster";"selfclass"
"82";"erstklassig";"selfclass"
"83";"essbar";"selfclass"
"84";"essentiell";"selfclass"
"85";"eventuell";"selfclass"
"86";"exotisch";"selfclass"
"87";"falsch";"selfclass"
"89";"feinporig";"selfclass"
"90";"fertig";"selfclass"
"92";"fester";"selfclass"
"93";"fett";"selfclass"
"94";"fettarm";"selfclass"
"95";"fettig";"selfclass"
"96";"fettlöslich";"selfclass"
"97";"fettreich";"selfclass"
"98";"feucht";"selfclass"
"99";"feuerfest";"selfclass"
"100";"fix";"selfclass"
"101";"flach";"selfclass"
"102";"fleckig";"selfclass"
"103";"fluffig";"selfclass"
"106";"fruchtig";"selfclass"
"107";"gängigst";"selfclass"
"108";"gebacken";"selfclass"
"109";"geblieben";"selfclass"
"110";"gebraten";"selfclass"
"111";"gebraucht";"selfclass"
"112";"gebräunt";"selfclass"
"113";"gedünstet";"selfclass"
"114";"geerntet";"selfclass"
"115";"gefärbt";"selfclass"
"116";"gefettet";"selfclass"
"117";"geformt";"selfclass"
"119";"gefüllt";"selfclass"
"120";"gegart";"selfclass"
"121";"gegrillt";"selfclass"
"123";"gekauft";"selfclass"
"125";"gekraust";"selfclass"
"127";"gelblich";"selfclass"
"128";"gemacht";"selfclass"
"129";"gemahlen";"selfclass"
"130";"gemäßigt";"selfclass"
"131";"gemischt";"selfclass"
"132";"gentechnisch";"selfclass"
"133";"geöffnet";"selfclass"
"134";"geölt";"selfclass"
"135";"gepresst";"selfclass"
"136";"geputzt";"selfclass"
"137";"geraspelt";"selfclass"
"138";"gereift";"selfclass"
"139";"gerieben";"selfclass"
"140";"gering";"selfclass"
"141";"geronnen";"selfclass"
"142";"geröstet";"selfclass"
"143";"gesalzen";"selfclass"
"144";"geschält";"selfclass"
"145";"geschlagen";"selfclass"
"146";"geschlossen";"selfclass"
"147";"geschmacksneutral";"selfclass"
"148";"geschmackvoll";"selfclass"
"149";"geschmort";"selfclass"
"150";"geschnitten";"selfclass"
"151";"gesund";"selfclass"
"152";"gesundheitlich";"selfclass"
"153";"gesundheitsfördernd";"selfclass"
"154";"getrocknet";"selfclass"
"155";"geviertelt";"selfclass"
"156";"gewaschen";"selfclass"
"157";"gewiß";"selfclass"
"158";"gewöhnlich";"selfclass"
"159";"geworden";"selfclass"
"160";"gewünscht";"selfclass"
"161";"gezackt";"selfclass"
"162";"giftig";"selfclass"
"165";"gleichbleibend";"selfclass"
"166";"gleichgroß";"selfclass"
"168";"glutenfrei";"selfclass"
"169";"goldbraun";"selfclass"
"170";"goldgelb";"selfclass"
"171";"grandios";"selfclass"
"172";"grob";"selfclass"
"175";"günstig";"selfclass"
"176";"gusseisern";"selfclass"
"178";"halbiert";"selfclass"
"179";"handelsüblich";"selfclass"
"181";"hauchdünn";"selfclass"
"182";"häufig";"selfclass"
"184";"heiß";"selfclass"
"186";"hellgelb";"selfclass"
"187";"herb";"selfclass"
"189";"herrlich";"selfclass"
"191";"himmlisch";"selfclass"
"192";"hitzebeständig";"selfclass"
"195";"holzig";"selfclass"
"196";"homogen";"selfclass"
"197";"homogenisiert";"selfclass"
"198";"hübsch";"selfclass"
"199";"ideal";"selfclass"
"202";"interessant";"selfclass"
"203";"italienisch";"selfclass"
"204";"japanisch";"selfclass"
"205";"kalorienarm";"selfclass"
"207";"kaltgepresst";"selfclass"
"208";"klassisch";"selfclass"
"209";"klebrig";"selfclass"
"211";"knackig";"selfclass"
"212";"knusprig";"selfclass"
"213";"kochend";"selfclass"
"214";"kompakt";"selfclass"
"215";"komplett";"selfclass"
"216";"körnig";"selfclass"
"217";"körpereigen";"selfclass"
"218";"kostbar";"selfclass"
"221";"kraus";"selfclass"
"222";"kreativ";"selfclass"
"223";"kristallin";"selfclass"
"224";"kühl";"selfclass"
"225";"kulinarisch";"selfclass"
"226";"künstlich";"selfclass"
"227";"kurz";"selfclass"
"228";"lang";"selfclass"
"229";"langfristig";"selfclass"
"230";"länglich";"selfclass"
"231";"lauwarm";"selfclass"
"232";"lebend";"selfclass"
"233";"lebenswichtig";"selfclass"
"235";"leckerst";"selfclass"
"237";"leicht";"selfclass"
"238";"leistungsfähig";"selfclass"
"239";"letzter";"selfclass"
"240";"lieb";"selfclass"
"241";"locker";"selfclass"
"243";"luftdicht";"selfclass"
"244";"luftig";"selfclass"
"245";"lustig";"selfclass"
"246";"mager";"selfclass"
"247";"makellos";"selfclass"
"248";"matschig";"selfclass"
"249";"matt";"selfclass"
"250";"mediterran";"selfclass"
"251";"mikrowellengeeignet";"selfclass"
"253";"mittelgroß";"selfclass"
"254";"mittlerer";"selfclass"
"255";"nächster";"selfclass"
"256";"nahrhaft";"selfclass"
"257";"nährstoffreich";"selfclass"
"258";"naß";"selfclass"
"259";"naturbelassen";"selfclass"
"260";"natürlich";"selfclass"
"261";"neutral";"selfclass"
"262";"niedlich";"selfclass"
"264";"normal";"selfclass"
"265";"nussig";"selfclass"
"266";"nützlich";"selfclass"
"267";"oberer";"selfclass"
"268";"ofenfest";"selfclass"
"269";"optimal";"selfclass"
"270";"optisch";"selfclass"
"271";"orang";"selfclass"
"272";"orangefarben";"selfclass"
"273";"orangen";"selfclass"
"274";"ordentlich";"selfclass"
"275";"original";"selfclass"
"276";"passend";"selfclass"
"277";"perfekt";"selfclass"
"278";"persönlich";"selfclass"
"279";"pfeffrig";"selfclass"
"281";"pikant";"selfclass"
"282";"pochiert";"selfclass"
"283";"praktisch";"selfclass"
"284";"preiswert";"selfclass"
"285";"pur";"selfclass"
"286";"püriert";"selfclass"
"288";"ranzig";"selfclass"
"289";"rau";"selfclass"
"290";"regelmäßig";"selfclass"
"291";"reichhaltig";"selfclass"
"292";"reichlich";"selfclass"
"293";"reif";"selfclass"
"294";"reifer";"selfclass"
"295";"rein";"selfclass"
"296";"relativ";"selfclass"
"298";"richtig";"selfclass"
"299";"riechend";"selfclass"
"300";"robust";"selfclass"
"302";"rosa";"selfclass"
"304";"rötlich";"selfclass"
"305";"rund";"selfclass"
"307";"sahnig";"selfclass"
"309";"sämig";"selfclass"
"310";"sanft";"selfclass"
"311";"sauber";"selfclass"
"312";"sauer";"selfclass"
"313";"säuerlich";"selfclass"
"314";"saur";"selfclass"
"316";"schick";"selfclass"
"317";"schimmlig";"selfclass"
"318";"schlecht";"selfclass"
"319";"schmackhaft";"selfclass"
"320";"schmal";"selfclass"
"321";"schmelzend";"selfclass"
"322";"schmutzig";"selfclass"
"323";"schnell";"selfclass"
"325";"schonend";"selfclass"
"326";"schottisch";"selfclass"
"327";"schwarz";"selfclass"
"328";"schweizer";"selfclass"
"329";"schwer";"selfclass"
"330";"selbstgemacht";"selfclass"
"331";"selten";"selfclass"
"332";"separat";"selfclass"
"333";"sichtbar";"selfclass"
"334";"simpel";"selfclass"
"335";"sirupartig";"selfclass"
"336";"sogenannter";"selfclass"
"337";"sonnig";"selfclass"
"339";"speziell";"selfclass"
"340";"spiralförmig";"selfclass"
"341";"spitz";"selfclass"
"342";"stabil";"selfclass"
"343";"standhaft";"selfclass"
"344";"stark";"selfclass"
"345";"strahlend";"selfclass"
"346";"streng";"selfclass"
"347";"stressig";"selfclass"
"348";"super";"selfclass"
"350";"süßlich";"selfclass"
"351";"süßsaur";"selfclass"
"352";"täglich";"selfclass"
"353";"teuer";"selfclass"
"354";"thailändisch";"selfclass"
"355";"tiefgefroren";"selfclass"
"356";"tiefgekühlt";"selfclass"
"357";"tierisch";"selfclass"
"358";"tolerierbar";"selfclass"
"360";"traditionell";"selfclass"
"362";"tropisch";"selfclass"
"364";"überflüssig";"selfclass"
"365";"überschüssig";"selfclass"
"366";"ultimativ";"selfclass"
"367";"unangenehm";"selfclass"
"368";"unbedingt";"selfclass"
"369";"unbehandelt";"selfclass"
"370";"unbekannt";"selfclass"
"371";"unbeschädigt";"selfclass"
"372";"ungesund";"selfclass"
"373";"ungesüßt";"selfclass"
"374";"ungewöhnlich";"selfclass"
"375";"unnötig";"selfclass"
"376";"unreif";"selfclass"
"377";"unschön";"selfclass"
"378";"unter";"selfclass"
"379";"unterer";"selfclass"
"381";"unverwechselbar";"selfclass"
"382";"üppig";"selfclass"
"384";"vegetarisch";"selfclass"
"385";"verändert";"selfclass"
"386";"verarbeitet";"selfclass"
"387";"verfärbt";"selfclass"
"388";"verhältnismäßig";"selfclass"
"389";"verpackt";"selfclass"
"391";"verschiedenst";"selfclass"
"392";"verschließbar";"selfclass"
"393";"verschlossen";"selfclass"
"394";"verwenden";"selfclass"
"395";"verwendet";"selfclass"
"396";"vierter";"selfclass"
"397";"vietnamesisch";"selfclass"
"398";"violett";"selfclass"
"399";"voll";"selfclass"
"400";"vollmundig";"selfclass"
"401";"vorbereitet";"selfclass"
"402";"vorgeheizt";"selfclass"
"403";"wachsweich";"selfclass"
"406";"weiblich";"selfclass"
"408";"weiß";"selfclass"
"409";"wertvoll";"selfclass"
"411";"wiener";"selfclass"
"412";"wöchentlich";"selfclass"
"413";"wunderbar";"selfclass"
"415";"zäh";"selfclass"
"418";"zartschmelzend";"selfclass"
"419";"zerkleinert";"selfclass"
"420";"zubereitet";"selfclass"
"421";"zuckerhaltig";"selfclass"
"422";"zuckersüß";"selfclass"
"423";"zusätzlich";"selfclass"
"424";"zweiter";"selfclass"
