"word";"class"
"320";"kräuter";"13"
"541";"spinat";"13"
"116";"ei";"14"
"188";"frühstücksei";"14"
"42";"beilage";"15"
"187";"frühstück";"15"
"452";"preis";"16"
"454";"qualität";"16"
"413";"olivenöl";"17"
"481";"sache";"17"
"177";"food";"18"
"203";"genuss";"18"
"277";"kalorienmenge";"23"
"76";"brühe";"24"
"483";"saft";"24"
"264";"inhaltsstoffen";"25"
"338";"kürbissorte";"25"
"160";"fettgehalt";"26"
"576";"temperatur";"26"
"146";"exemplar";"27"
"585";"topf";"27"
"578";"tipp";"28"
"591";"trick";"28"
"201";"gemüsenudeln";"32"
"260";"idee";"32"
"22";"auswahl";"33"
"253";"hitze";"33"
"362";"margarine";"34"
"608";"wasser";"34"
"69";"brezel";"35"
"466";"reis";"35"
"16";"aroma";"36"
"403";"note";"36"
"225";"gnocchi";"37"
"577";"test";"37"
"38";"beeren";"42"
"424";"paprika";"42"
"433";"pfeffer";"42"
"581";"tomate";"42"
"594";"trüffel";"42"
"174";"fleischstück";"43"
"373";"messer";"43"
"206";"gericht";"44"
"469";"rezept";"44"
"170";"flecken";"48"
"516";"schokolade";"48"
"569";"teig";"48"
"127";"eiweiße";"49"
"157";"fett";"49"
"509";"scheibe";"5"
"551";"streifen";"5"
"431";"pfanne";"50"
"356";"mahlzeit";"51"
"525";"snack";"51"
"251";"hingucker";"52"
"579";"tipps";"52"
"182";"frucht";"57"
"488";"salat";"57"
"371";"menge";"58"
"518";"schüssel";"58"
"411";"öl";"59"
"458";"rapsöl";"59"
"32";"ballaststoff";"6"
"263";"inhaltsstoffe";"6"
"396";"nährstoff";"6"
"407";"oberfläche";"60"
"503";"schale";"60"
"318";"köstlichkeit";"64"
"554";"stück";"64"
"53";"blatt";"65"
"489";"salatblatt";"65"
"324";"küche";"66"
"404";"nudeln";"66"
"213";"geschmack";"67"
"601";"version";"7"
"621";"woche";"7"
"136";"ernährung";"71"
"286";"käse";"71"
"342";"lebensmittel";"71"
"531";"sorte";"71"
"171";"fleisch";"72"
"199";"gemüse";"72"
"310";"konsistenz";"72"
"292";"keller";"8"
"416";"ort";"8"
"239";"hartkäse";"9"
"294";"klassiker";"9"
"1";"abnehmen";"selfclass"
"2";"abstand";"selfclass"
"3";"abwehrkraft";"selfclass"
"4";"alleskönner";"selfclass"
"5";"allrounder";"selfclass"
"6";"alternative";"selfclass"
"7";"aminosäuren";"selfclass"
"8";"anteil";"selfclass"
"9";"antioxidantien";"selfclass"
"10";"apfel";"selfclass"
"11";"apfelmus";"selfclass"
"12";"apfelsorte";"selfclass"
"13";"apfelstrudel";"selfclass"
"14";"apfelstück";"selfclass"
"15";"arbeitsfläche";"selfclass"
"17";"art";"selfclass"
"18";"aufnahmemenge";"selfclass"
"19";"auge";"selfclass"
"20";"ausnahme";"selfclass"
"21";"ausstecher";"selfclass"
"23";"autor";"selfclass"
"24";"avocado";"selfclass"
"25";"backblech";"selfclass"
"26";"backfähigkeit";"selfclass"
"27";"backform";"selfclass"
"28";"backofen";"selfclass"
"29";"backware";"selfclass"
"30";"baguette";"selfclass"
"31";"bakterie";"selfclass"
"33";"bällchen";"selfclass"
"34";"balsamico";"selfclass"
"35";"bauch";"selfclass"
"36";"becher";"selfclass"
"37";"beere";"selfclass"
"39";"beete";"selfclass"
"40";"begleiter";"selfclass"
"41";"behälter";"selfclass"
"43";"berg";"selfclass"
"44";"beschaffenheit";"selfclass"
"45";"bestandteil";"selfclass"
"46";"besteck";"selfclass"
"47";"bete";"selfclass"
"48";"bezeichnung";"selfclass"
"49";"bier";"selfclass"
"50";"bioladen";"selfclass"
"51";"biskuit";"selfclass"
"52";"biskuitteig";"selfclass"
"54";"blattsalat";"selfclass"
"55";"blaubeeren";"selfclass"
"56";"blende";"selfclass"
"57";"blumenkohl";"selfclass"
"58";"blüte";"selfclass"
"59";"blutkörperchen";"selfclass"
"60";"blutzuckerspiegel";"selfclass"
"61";"boden";"selfclass"
"62";"bohne";"selfclass"
"63";"bombe";"selfclass"
"64";"booster";"selfclass"
"65";"braten";"selfclass"
"66";"bratkartoffel";"selfclass"
"67";"brei";"selfclass"
"68";"breze";"selfclass"
"70";"brezeln";"selfclass"
"71";"brot";"selfclass"
"72";"brote";"selfclass"
"73";"brotlaib";"selfclass"
"74";"brotscheibe";"selfclass"
"75";"brotteig";"selfclass"
"77";"butter";"selfclass"
"78";"butterschmalz";"selfclass"
"79";"capsaicin";"selfclass"
"80";"carotin";"selfclass"
"81";"chili";"selfclass"
"82";"chilis";"selfclass"
"83";"cholesterinspiegel";"selfclass"
"84";"cholesterinwert";"selfclass"
"85";"chutneys";"selfclass"
"86";"computerprogramm";"selfclass"
"87";"cookies";"selfclass"
"88";"crema";"selfclass"
"89";"cremes";"selfclass"
"90";"crêpes";"selfclass"
"91";"cronuts";"selfclass"
"92";"crunch";"selfclass"
"93";"cumarin";"selfclass"
"94";"curry";"selfclass"
"95";"currys";"selfclass"
"96";"deckel";"selfclass"
"97";"delikatesse";"selfclass"
"98";"design";"selfclass"
"99";"dessert";"selfclass"
"100";"desserts";"selfclass"
"101";"diät";"selfclass"
"102";"ding";"selfclass"
"103";"dosis";"selfclass"
"104";"dressing";"selfclass"
"105";"dressings";"selfclass"
"106";"drink";"selfclass"
"107";"drittel";"selfclass"
"108";"druck";"selfclass"
"109";"druckstelle";"selfclass"
"110";"duft";"selfclass"
"111";"durstlöscher";"selfclass"
"112";"ebene";"selfclass"
"113";"edelpilz";"selfclass"
"114";"edelstahlschüssel";"selfclass"
"115";"effekt";"selfclass"
"117";"eiern";"selfclass"
"118";"eigengeschmack";"selfclass"
"119";"eigenschaft";"selfclass"
"120";"einfluß";"selfclass"
"121";"einkaufen";"selfclass"
"122";"einlage";"selfclass"
"123";"eintopf";"selfclass"
"124";"eis";"selfclass"
"125";"eiswürfelbehälter";"selfclass"
"126";"eiweißanteil";"selfclass"
"128";"eiweißquelle";"selfclass"
"129";"ende";"selfclass"
"130";"entenbrust";"selfclass"
"131";"enzyme";"selfclass"
"132";"equipment";"selfclass"
"133";"erdbeeren";"selfclass"
"134";"erde";"selfclass"
"135";"ergänzung";"selfclass"
"137";"ernährungsform";"selfclass"
"138";"ernährungsumstellung";"selfclass"
"139";"ernährungsweise";"selfclass"
"140";"espresso";"selfclass"
"141";"essen";"selfclass"
"142";"essig";"selfclass"
"143";"essigkellerei";"selfclass"
"144";"etikett";"selfclass"
"145";"etwas";"selfclass"
"147";"extra";"selfclass"
"148";"fach";"selfclass"
"149";"faktum";"selfclass"
"150";"fan";"selfclass"
"151";"farbe";"selfclass"
"152";"farbstoff";"selfclass"
"153";"färbung";"selfclass"
"154";"fasten";"selfclass"
"155";"fastenperiode";"selfclass"
"156";"fenchelgrün";"selfclass"
"158";"fettanteil";"selfclass"
"159";"fette";"selfclass"
"161";"fettsäure";"selfclass"
"162";"film";"selfclass"
"163";"firma";"selfclass"
"164";"fisch";"selfclass"
"165";"fläche";"selfclass"
"166";"fladen";"selfclass"
"167";"flair";"selfclass"
"168";"fläschchen";"selfclass"
"169";"flasche";"selfclass"
"172";"fleischpäckchen";"selfclass"
"173";"fleischsorte";"selfclass"
"175";"flügel";"selfclass"
"176";"flüssigkeit";"selfclass"
"178";"form";"selfclass"
"179";"förmchen";"selfclass"
"180";"foto";"selfclass"
"181";"frischkäse";"selfclass"
"183";"früchtchen";"selfclass"
"184";"fruchtfleisch";"selfclass"
"185";"fruchtsalat";"selfclass"
"186";"fruchtzucker";"selfclass"
"189";"füllung";"selfclass"
"190";"gadget";"selfclass"
"191";"garstufe";"selfclass"
"192";"garzeit";"selfclass"
"193";"gebäck";"selfclass"
"194";"gebäckpresse";"selfclass"
"195";"gefäß";"selfclass"
"196";"gefrierbeutel";"selfclass"
"197";"gefrierbeuteln";"selfclass"
"198";"gelingen";"selfclass"
"200";"gemüsehändler";"selfclass"
"202";"gemüsesorte";"selfclass"
"204";"genussmoment";"selfclass"
"205";"gerät";"selfclass"
"207";"geruch";"selfclass"
"208";"geschenk";"selfclass"
"209";"geschirr";"selfclass"
"210";"geschirre";"selfclass"
"211";"geschirrtuch";"selfclass"
"212";"geschirrtücher";"selfclass"
"214";"geschmacks";"selfclass"
"215";"geschmackserlebnis";"selfclass"
"216";"geschmacksträger";"selfclass"
"217";"getränk";"selfclass"
"218";"getreidesorten";"selfclass"
"219";"gewässer";"selfclass"
"220";"gewissen";"selfclass"
"221";"gewürz";"selfclass"
"222";"gewürzmischung";"selfclass"
"223";"giftigkeit";"selfclass"
"224";"glas";"selfclass"
"226";"gold";"selfclass"
"227";"gras";"selfclass"
"228";"griff";"selfclass"
"229";"größe";"selfclass"
"230";"grund";"selfclass"
"231";"grundregel";"selfclass"
"232";"grütze";"selfclass"
"233";"gurke";"selfclass"
"234";"güteklasse";"selfclass"
"235";"haferflocke";"selfclass"
"236";"haltbarkeit";"selfclass"
"237";"hammers";"selfclass"
"238";"handrührgerät";"selfclass"
"240";"hasen";"selfclass"
"241";"hauptgericht";"selfclass"
"242";"haushaltswarenladen";"selfclass"
"243";"hausmittel";"selfclass"
"244";"haut";"selfclass"
"245";"hefeteig";"selfclass"
"246";"helfer";"selfclass"
"247";"herdplatte";"selfclass"
"248";"herz";"selfclass"
"249";"herzmuschel";"selfclass"
"250";"highlight";"selfclass"
"252";"hintergrund";"selfclass"
"254";"hormon";"selfclass"
"255";"hühnchen";"selfclass"
"256";"hühnersuppe";"selfclass"
"257";"hülsen";"selfclass"
"258";"hülsenfrucht";"selfclass"
"259";"hungergefühl";"selfclass"
"261";"index";"selfclass"
"262";"ingwer";"selfclass"
"265";"jahreszeit";"selfclass"
"266";"jakobsmuschel";"selfclass"
"267";"joghurt";"selfclass"
"268";"johannisbeeren";"selfclass"
"269";"kaffee";"selfclass"
"270";"kaffeebohne";"selfclass"
"271";"kaffeeöl";"selfclass"
"272";"kaffees";"selfclass"
"273";"kaffeespezialität";"selfclass"
"274";"kakaobohne";"selfclass"
"275";"kakis";"selfclass"
"276";"kalorienbombe";"selfclass"
"278";"kalorienzufuhr";"selfclass"
"279";"kante";"selfclass"
"280";"karotten";"selfclass"
"281";"kartoffel";"selfclass"
"282";"kartoffelbällchen";"selfclass"
"283";"kartoffelknödeln";"selfclass"
"284";"kartoffelrarität";"selfclass"
"285";"kartoffelsorte";"selfclass"
"287";"käselaib";"selfclass"
"288";"käsesorte";"selfclass"
"289";"käsetheke";"selfclass"
"290";"kaviar";"selfclass"
"291";"kekse";"selfclass"
"293";"kern";"selfclass"
"295";"klima";"selfclass"
"296";"klingen";"selfclass"
"297";"knoblauch";"selfclass"
"298";"knochen";"selfclass"
"299";"knödel";"selfclass"
"300";"knolle";"selfclass"
"301";"knollen";"selfclass"
"302";"kochen";"selfclass"
"303";"kochtopf";"selfclass"
"304";"kohl";"selfclass"
"305";"kohlenhydrate";"selfclass"
"306";"kohlenwasserstoff";"selfclass"
"307";"kombination";"selfclass"
"308";"kompott";"selfclass"
"309";"konfitüre";"selfclass"
"311";"konsum";"selfclass"
"312";"kopf";"selfclass"
"313";"koriander";"selfclass"
"314";"koriandersamen";"selfclass"
"315";"korn";"selfclass"
"316";"kost";"selfclass"
"317";"kosten";"selfclass"
"319";"krapfen";"selfclass"
"321";"kräutern";"selfclass"
"322";"kreis";"selfclass"
"323";"kruste";"selfclass"
"325";"kuchen";"selfclass"
"326";"küchengerät";"selfclass"
"327";"küchenhelfer";"selfclass"
"328";"küchenmaschine";"selfclass"
"329";"küchenmaß";"selfclass"
"330";"küchentipps";"selfclass"
"331";"küchentuch";"selfclass"
"332";"kugel";"selfclass"
"333";"kühlschrank";"selfclass"
"334";"kunststoff";"selfclass"
"335";"kürbis";"selfclass"
"336";"kürbiskernöl";"selfclass"
"337";"kürbisse";"selfclass"
"339";"kürbissuppe";"selfclass"
"340";"lagerung";"selfclass"
"341";"laib";"selfclass"
"343";"lebensstil";"selfclass"
"344";"leber";"selfclass"
"345";"leckerbissen";"selfclass"
"346";"leckereien";"selfclass"
"347";"lichtquelle";"selfclass"
"348";"lifehack";"selfclass"
"349";"linse";"selfclass"
"350";"liste";"selfclass"
"351";"loch";"selfclass"
"352";"lochscheibe";"selfclass"
"353";"low";"selfclass"
"354";"luft";"selfclass"
"355";"mahlgrad";"selfclass"
"357";"mais";"selfclass"
"358";"mandarinen";"selfclass"
"359";"mandarinenfilets";"selfclass"
"360";"mandarinkürbissen";"selfclass"
"361";"mandeln";"selfclass"
"363";"maronen";"selfclass"
"364";"masse";"selfclass"
"365";"material";"selfclass"
"366";"medizin";"selfclass"
"367";"meerrettich";"selfclass"
"368";"meersalz";"selfclass"
"369";"mehl";"selfclass"
"370";"mehlsorte";"selfclass"
"372";"mensch";"selfclass"
"374";"methode";"selfclass"
"375";"milch";"selfclass"
"376";"milchprodukt";"selfclass"
"377";"milchschaum";"selfclass"
"378";"mineralstoff";"selfclass"
"379";"mischung";"selfclass"
"380";"mittel";"selfclass"
"381";"mix";"selfclass"
"382";"mixbecher";"selfclass"
"383";"mixer";"selfclass"
"384";"molkeneiweiße";"selfclass"
"385";"motor";"selfclass"
"386";"mousse";"selfclass"
"387";"muschel";"selfclass"
"388";"muschelart";"selfclass"
"389";"muskatnuss";"selfclass"
"390";"muskel";"selfclass"
"391";"muster";"selfclass"
"392";"nachgeschmack";"selfclass"
"393";"nachricht";"selfclass"
"394";"nadel";"selfclass"
"395";"nadeln";"selfclass"
"397";"nahrung";"selfclass"
"398";"nahrungsmittel";"selfclass"
"399";"name";"selfclass"
"400";"naschereien";"selfclass"
"401";"nationalgericht";"selfclass"
"402";"neujahrsbrezel";"selfclass"
"405";"nüsse";"selfclass"
"406";"nüssen";"selfclass"
"408";"obst";"selfclass"
"409";"obstsorte";"selfclass"
"410";"ofen";"selfclass"
"412";"oliven";"selfclass"
"414";"optik";"selfclass"
"415";"orangensaft";"selfclass"
"417";"örtchen";"selfclass"
"418";"packung";"selfclass"
"419";"palette";"selfclass"
"420";"panade";"selfclass"
"421";"pancakes";"selfclass"
"422";"panzer";"selfclass"
"423";"papier";"selfclass"
"425";"paprikafrüchte";"selfclass"
"426";"parmesan";"selfclass"
"427";"partnerschaft";"selfclass"
"428";"pasta";"selfclass"
"429";"pesto";"selfclass"
"430";"petersilie";"selfclass"
"432";"pfannkuchen";"selfclass"
"434";"pfirsiche";"selfclass"
"435";"pflanze";"selfclass"
"436";"pflanzenöl";"selfclass"
"437";"pflanzenstoff";"selfclass"
"438";"pfunde";"selfclass"
"439";"pilze";"selfclass"
"440";"pizza";"selfclass"
"441";"platte";"selfclass"
"442";"platz";"selfclass"
"443";"plätzchen";"selfclass"
"444";"pluspunkt";"selfclass"
"445";"pommes";"selfclass"
"446";"popcorn";"selfclass"
"447";"portion";"selfclass"
"448";"portionen";"selfclass"
"449";"powerpaket";"selfclass"
"450";"pralinen";"selfclass"
"451";"pralinenschachtel";"selfclass"
"453";"produkt";"selfclass"
"455";"quelle";"selfclass"
"456";"quinoa";"selfclass"
"457";"rand";"selfclass"
"459";"rauchpunkt";"selfclass"
"460";"ravioli";"selfclass"
"461";"reformhaus";"selfclass"
"462";"regel";"selfclass"
"463";"region";"selfclass"
"464";"reibe";"selfclass"
"465";"reinigung";"selfclass"
"467";"reissorte";"selfclass"
"468";"rest";"selfclass"
"470";"rezepten";"selfclass"
"471";"rhythmus";"selfclass"
"472";"rinde";"selfclass"
"473";"ring";"selfclass"
"474";"risotto";"selfclass"
"475";"rohmilch";"selfclass"
"476";"rolle";"selfclass"
"477";"röschen";"selfclass"
"478";"rosenkohl";"selfclass"
"479";"rost";"selfclass"
"480";"roulade";"selfclass"
"482";"safran";"selfclass"
"484";"säfte";"selfclass"
"485";"saftpresse";"selfclass"
"486";"safts";"selfclass"
"487";"sahne";"selfclass"
"490";"salate";"selfclass"
"491";"salbeiblatt";"selfclass"
"492";"salz";"selfclass"
"493";"salzwasser";"selfclass"
"494";"samen";"selfclass"
"495";"samenkugel";"selfclass"
"496";"sandwich";"selfclass"
"497";"sandwiches";"selfclass"
"498";"sättigungsgefühl";"selfclass"
"499";"satz";"selfclass"
"500";"sauce";"selfclass"
"501";"saucen";"selfclass"
"502";"säure";"selfclass"
"504";"schärfe";"selfclass"
"505";"scharfmacher";"selfclass"
"506";"schatz";"selfclass"
"507";"schaum";"selfclass"
"508";"schaumschicht";"selfclass"
"510";"schicht";"selfclass"
"511";"schinken";"selfclass"
"512";"schmecken";"selfclass"
"513";"schmelz";"selfclass"
"514";"schnittfläche";"selfclass"
"515";"schnitzel";"selfclass"
"517";"schote";"selfclass"
"519";"seite";"selfclass"
"520";"senf";"selfclass"
"521";"senfkorn";"selfclass"
"522";"signal";"selfclass"
"523";"smoothie";"selfclass"
"524";"smoothies";"selfclass"
"526";"snacks";"selfclass"
"527";"sojabohne";"selfclass"
"528";"sojasauce";"selfclass"
"529";"sommertag";"selfclass"
"530";"sonnenblumenöl";"selfclass"
"532";"soßen";"selfclass"
"533";"spalte";"selfclass"
"534";"spargel";"selfclass"
"535";"spaziergang";"selfclass"
"536";"speise";"selfclass"
"537";"speiseöl";"selfclass"
"538";"speiseölen";"selfclass"
"539";"spezialität";"selfclass"
"540";"spiegel";"selfclass"
"542";"spiralschneider";"selfclass"
"543";"spritze";"selfclass"
"544";"stange";"selfclass"
"545";"stärke";"selfclass"
"546";"steak";"selfclass"
"547";"stelle";"selfclass"
"548";"stoff";"selfclass"
"549";"stollen";"selfclass"
"550";"strang";"selfclass"
"552";"strudel";"selfclass"
"553";"strudelteig";"selfclass"
"555";"stückchen";"selfclass"
"556";"stunde";"selfclass"
"557";"sünde";"selfclass"
"558";"supermarkt";"selfclass"
"559";"suppe";"selfclass"
"560";"suppen";"selfclass"
"561";"suppenkelle";"selfclass"
"562";"sushi";"selfclass"
"563";"süße";"selfclass"
"564";"süßspeise";"selfclass"
"565";"tafelapfel";"selfclass"
"566";"tag";"selfclass"
"567";"tasse";"selfclass"
"568";"tee";"selfclass"
"570";"teige";"selfclass"
"571";"teigkleckse";"selfclass"
"572";"teigling";"selfclass"
"573";"teigplatte";"selfclass"
"574";"teint";"selfclass"
"575";"teller";"selfclass"
"580";"tischtuch";"selfclass"
"582";"tomatensuppe";"selfclass"
"583";"ton";"selfclass"
"584";"tools";"selfclass"
"586";"torte";"selfclass"
"587";"torten";"selfclass"
"588";"touch";"selfclass"
"589";"traube";"selfclass"
"590";"traubenmost";"selfclass"
"592";"trockenbohne";"selfclass"
"593";"tropfen";"selfclass"
"595";"tuch";"selfclass"
"596";"tupfen";"selfclass"
"597";"typ";"selfclass"
"598";"ursprungs";"selfclass"
"599";"variante";"selfclass"
"600";"verführung";"selfclass"
"602";"vitamin";"selfclass"
"603";"vitamine";"selfclass"
"604";"vitaminen";"selfclass"
"605";"vorlage";"selfclass"
"606";"vorspeise";"selfclass"
"607";"ware";"selfclass"
"609";"weckglas";"selfclass"
"610";"weichtier";"selfclass"
"611";"weihnachtsgebäck";"selfclass"
"612";"wein";"selfclass"
"613";"weise";"selfclass"
"614";"weißwein";"selfclass"
"615";"werkzeug";"selfclass"
"616";"wind";"selfclass"
"617";"winkel";"selfclass"
"618";"wirkstoff";"selfclass"
"619";"wirkung";"selfclass"
"620";"wissen";"selfclass"
"622";"wohlbefinden";"selfclass"
"623";"wokgericht";"selfclass"
"624";"wunder";"selfclass"
"625";"wundermittel";"selfclass"
"626";"würfel";"selfclass"
"627";"würze";"selfclass"
"628";"wurzel";"selfclass"
"629";"zahn";"selfclass"
"630";"zeitraum";"selfclass"
"631";"zitronen";"selfclass"
"632";"zitrusfrucht";"selfclass"
"633";"zubehör";"selfclass"
"634";"zubereitung";"selfclass"
"635";"zucchini";"selfclass"
"636";"zucker";"selfclass"
"637";"zuckeranteil";"selfclass"
"638";"zunge";"selfclass"
"639";"zusammensetzung";"selfclass"
"640";"zusatz";"selfclass"
"641";"zustand";"selfclass"
"642";"zutat";"selfclass"
"643";"zwiebel";"selfclass"
"644";"zwiebeln";"selfclass"
